…
### Getting started

Create consistent reliability data with columns:

-   `x` - lifetime characteristic  
-   `status` - binary data (0 for censored units and 1 for failed units)
-   `id` (optional) - identifier for units

``` r
library(weibulltools)

rel_tbl <- reliability_data(data = shock, x = distance, status = status)
rel_tbl
#> Reliability Data with characteristic x: 'distance':
#> # A tibble: 38 x 3
#>       x status id   
#>   <int>  <dbl> <chr>
#> 1  6700      1 ID1  
#> 2  6950      0 ID2  
#> 3  7820      0 ID3  
#> 4  8790      0 ID4  
#> 5  9120      1 ID5  
#> # ... with 33 more rows
```

### Probability estimation and visualization

Estimation of failure probabilities using different non-parametric
methods:

``` r
prob_tbl <- estimate_cdf(x = rel_tbl, methods = c("mr", "kaplan", "johnson", "nelson"))
#> The 'mr' method only considers failed units (status == 1) and does not retain intact units (status == 0).
prob_tbl
#> CDF estimation for methods 'mr', 'kaplan', 'johnson', 'nelson':
#> # A tibble: 125 x 6
#>   id        x status  rank   prob cdf_estimation_method
#>   <chr> <int>  <dbl> <dbl>  <dbl> <chr>                
#> 1 ID1    6700      1     1 0.0614 mr                   
#> 2 ID5    9120      1     2 0.149  mr                   
#> 3 ID13  12200      1     3 0.237  mr                   
#> 4 ID15  13150      1     4 0.325  mr                   
#> 5 ID19  14300      1     5 0.412  mr                   
#> # ... with 120 more rows
```
…
