…
[^note3]: Meeker, W. Q.; Escobar, L. A.: _Statistical Methods for Reliability Data_, 
          _New York, Wiley series in probability and statistics_, 1998, p. 630


```r
library(SPREDA) # for dataset shock
#> Warning: Paket 'SPREDA' wurde unter R Version 4.0.3 erstellt
data(shock)
# generate random ids for units: 
shock$id <- sample(c(letters, LETTERS), size = nrow(shock), replace = FALSE)

# using tibble for better print: 
as_tibble(shock)
#> # A tibble: 38 x 4
#>    Distance Mode     Censor id   
#>       <int> <fct>     <dbl> <chr>
#>  1     6700 Mode1         1 j    
#>  2     6950 Censored      0 N    
#>  3     7820 Censored      0 D    
#>  4     8790 Censored      0 X    
#>  5     9120 Mode2         1 y    
#>  6     9660 Censored      0 p    
#>  7     9820 Censored      0 f    
#>  8    11310 Censored      0 o    
#>  9    11690 Censored      0 l    
#> 10    11850 Censored      0 L    
#> # ... with 28 more rows
…
For reasons of simplicity we will ignore the differences between the failure modes _Mode1_ and _Mode2_ which are shown in _Figure 2_. Thus, we will act as there is only one mechanism of damage.  

First, we are interested in how censored observations influence the estimation of failure probabilities in comparison to the case where only failed units are considered. 
In the latter case we will use the function `estimate_cdf()` with `methods = "mr"`. To deal with survived and failed units we will use `estimate_cdf()` with `methods = "johnson"`. In order to use `estimate_cdf` we must convert the `shock` dataset to an appropriate format using the function `reliability_data()`.  


```r
# Extract failure data from shock
failure_tbl <- reliability_data(shock, x = Distance, status = Censor, id = id)
failure_tbl
```

Reliability Data:
# A tibble: 38 x 3
       x status id   
   <int>  <dbl> <chr>
 1  6700      1 j    
 2  6950      0 N    
 3  7820      0 D    
 4  8790      0 X    
 5  9120      1 y    
 6  9660      0 p    
 7  9820      0 f    
 8 11310      0 o    
 9 11690      0 l    
10 11850      0 L    
# ... with 28 more rows
…
