# dist_delay remains stable

          sc 
    28.91667 

---

     [1]  NA  24  55   5  NA  NA  22  NA  33  21  29  NA 102  NA  NA  14  NA  30  NA
    [20]   6   6  NA  NA

# mcs_delay remains stable by defining the seed

    Reliability Data with Characteristic x: 'time':
    # A tibble: 23 x 7
       date_1.1   date_1.2   date_2.1   date_2.2       x status id   
       <chr>      <chr>      <chr>      <chr>      <dbl>  <dbl> <chr>
     1 2014-07-28 <NA>       <NA>       <NA>        969.      0 ID1  
     2 2014-02-17 2014-09-15 2014-03-29 2014-10-09 1000       1 ID2  
     3 2014-07-14 2015-07-04 2014-12-06 2015-08-28 1000       1 ID3  
     4 2014-06-26 2015-04-10 2014-09-09 2015-04-15 1000       1 ID4  
     5 2014-03-10 <NA>       <NA>       <NA>        940.      0 ID5  
     6 2014-05-14 <NA>       <NA>       <NA>        891.      0 ID6  
     7 2014-05-06 2015-04-24 2014-06-16 2015-05-16 1000       1 ID7  
     8 2014-03-07 <NA>       <NA>       <NA>        944.      0 ID8  
     9 2014-03-09 2015-04-25 2014-05-23 2015-05-28 1000       1 ID9  
    10 2014-04-13 2015-04-24 2014-05-09 2015-05-15 1000       1 ID10 
    # ... with 13 more rows

---

    # A tibble: 23 x 2
       sim_delay.1 sim_delay.2
             <dbl>       <dbl>
     1        21.2      10.2  
     2         0         0    
     3         0         0    
     4         0         0    
     5        59.6       0.263
     6        62.5      46.6  
     7         0         0    
     8        32.2      23.5  
     9         0         0    
    10         0         0    
    # ... with 13 more rows
…
