…
    $loc_sc_params
          mu    sigma 
    6.460643 1.388958 
    
    $loc_sc_confint
             2.5 %   97.5 %
    mu    5.939826 6.977841
    sigma 1.091806 1.766984
    
    $r_squared
    [1] 0.9566145
    
    $data
    # A tibble: 27 x 2
       characteristic status
                <dbl>  <dbl>
     1              2      1
     2              3      1
     3              5      1
     4              8      1
     5             21      1
     6             28      1
     7             31      1
     8             64      1
     9             69      1
    10             76      1
    # ... with 17 more rows
…
    $logL
    [1] -180.2821
    
    $aic
    [1] 364.5642
    
    $bic
    [1] 368.6851
    
    $data
    # A tibble: 58 x 2
       characteristic status
                <dbl>  <dbl>
     1              2      1
     2             28      1
     3             67      0
     4            119      1
     5            179      0
     6            236      1
     7            282      1
     8            317      1
     9            348      1
    10            387      1
    # ... with 48 more rows
…
    $logL
    [1] -72.80019
    
    $aic
    [1] 149.6004
    
    $bic
    [1] 153.7213
    
    $data
    # A tibble: 58 x 2
       characteristic status
                <dbl>  <dbl>
     1              2      1
     2             28      1
     3             67      0
     4            119      1
     5            179      0
     6            236      1
     7            282      1
     8            317      1
     9            348      1
    10            387      1
    # ... with 48 more rows
…
