# plot_pop_helper snapshot

    # A tibble: 100 x 10
         loc    sc    x_s    y_s       q param_val_1 param_val_2 param_label_1
       <dbl> <dbl>  <dbl>  <dbl>   <dbl>       <dbl>       <dbl> <chr>        
     1  9.90     1 26522. 0.734   0.282        20000           1 <U+03B7>:           
     2  9.90     1 19771. 0.628  -0.0115       20000           1 <U+03B7>:           
     3  9.90     1 11143. 0.427  -0.585        20000           1 <U+03B7>:           
     4  9.90     1  1926. 0.0918 -2.34         20000           1 <U+03B7>:           
     5  9.90     1 32021. 0.798   0.471        20000           1 <U+03B7>:           
     6  9.90     1  2143. 0.102  -2.23         20000           1 <U+03B7>:           
     7  9.90     1  1138. 0.0553 -2.87         20000           1 <U+03B7>:           
     8  9.90     1  8286. 0.339  -0.881        20000           1 <U+03B7>:           
     9  9.90     1  9269. 0.371  -0.769        20000           1 <U+03B7>:           
    10  9.90     1 55681. 0.938   1.02         20000           1 <U+03B7>:           
    # ... with 90 more rows, and 2 more variables: param_label_2 <chr>, group <chr>
