…
---

    # A tibble: 23 x 6
       id        x status  rank  prob cdf_estimation_method
       <chr> <dbl>  <dbl> <dbl> <dbl> <chr>                
     1 X     10000      1    NA 0.110 kaplan               
     2 X     10000      1    NA 0.110 kaplan               
     3 X     20000      1    NA 0.227 kaplan               
     4 X     20000      1    NA 0.227 kaplan               
     5 X     30000      1    NA 0.413 kaplan               
     6 X     30000      1    NA 0.413 kaplan               
     7 X     30000      1    NA 0.413 kaplan               
     8 X     30000      1    NA 0.413 kaplan               
     9 X     40000      1    NA 0.481 kaplan               
    10 X     50000      1    NA 0.580 kaplan               
    # ... with 13 more rows
…
---

    # A tibble: 38 x 7
       id        x status  rank    prob cdf_estimation_method failure_mode
       <chr> <int>  <dbl> <dbl>   <dbl> <chr>                 <chr>       
     1 ID1    6700      1  1     0.0182 johnson               mode_1      
     2 ID2    6950      0 NA    NA      johnson               censored    
     3 ID3    7820      0 NA    NA      johnson               censored    
     4 ID4    8790      0 NA    NA      johnson               censored    
     5 ID5    9120      1  2.09  0.0465 johnson               mode_2      
     6 ID6    9660      0 NA    NA      johnson               censored    
     7 ID7    9820      0 NA    NA      johnson               censored    
     8 ID8   11310      0 NA    NA      johnson               censored    
     9 ID9   11690      0 NA    NA      johnson               censored    
    10 ID10  11850      0 NA    NA      johnson               censored    
    # ... with 28 more rows

---

    # A tibble: 38 x 7
       id        x status  rank    prob cdf_estimation_method failure_mode
       <chr> <int>  <dbl> <dbl>   <dbl> <chr>                 <chr>       
     1 ID1    6700      1    NA  0.0263 kaplan                mode_1      
     2 ID2    6950      0    NA NA      kaplan                censored    
     3 ID3    7820      0    NA NA      kaplan                censored    
     4 ID4    8790      0    NA NA      kaplan                censored    
     5 ID5    9120      1    NA  0.0550 kaplan                mode_2      
     6 ID6    9660      0    NA NA      kaplan                censored    
     7 ID7    9820      0    NA NA      kaplan                censored    
     8 ID8   11310      0    NA NA      kaplan                censored    
     9 ID9   11690      0    NA NA      kaplan                censored    
    10 ID10  11850      0    NA NA      kaplan                censored    
    # ... with 28 more rows

---

    # A tibble: 38 x 7
       id        x status  rank    prob cdf_estimation_method failure_mode
       <chr> <int>  <dbl> <dbl>   <dbl> <chr>                 <chr>       
     1 ID1    6700      1    NA  0.0260 nelson                mode_1      
     2 ID2    6950      0    NA NA      nelson                censored    
     3 ID3    7820      0    NA NA      nelson                censored    
     4 ID4    8790      0    NA NA      nelson                censored    
     5 ID5    9120      1    NA  0.0542 nelson                mode_2      
     6 ID6    9660      0    NA NA      nelson                censored    
     7 ID7    9820      0    NA NA      nelson                censored    
     8 ID8   11310      0    NA NA      nelson                censored    
     9 ID9   11690      0    NA NA      nelson                censored    
    10 ID10  11850      0    NA NA      nelson                censored    
    # ... with 28 more rows
