…
    $loc_sc_params
            mu      sigma      gamma 
     4.5721227  0.6556295 88.4275132 
    
    $loc_sc_confint
                 5 %        95 %
    mu     4.4476494   4.7119918
    sigma  0.5728259   0.7504026
    gamma 78.0781257 101.7025394
    
    $r_squared
    [1] 0.9882616
    
    $data
    # A tibble: 72 x 2
       characteristic status
                <dbl>  <dbl>
     1             94      1
     2             96      1
     3             99      1
     4             99      1
     5            104      1
     6            108      1
     7            112      1
     8            114      1
     9            117      1
    10            117      1
    # ... with 62 more rows
…
