Life Data Analysis Part III - Confidence Intervals • weibulltools
…
For consistent handling of the data, {weibulltools} introduces the
function reliability_data() that converts the original
dataset into a wt_reliability_data object. This formatted
object allows to easily apply the presented methods.

# Data:
shock_tbl <- reliability_data(data = shock, x = distance, status = status)
shock_tbl
#> Reliability Data with characteristic x: 'distance':
#> # A tibble: 38 x 3
#>        x status id   
#>    <int>  <dbl> <chr>
#>  1  6700      1 ID1  
#>  2  6950      0 ID2  
#>  3  7820      0 ID3  
#>  4  8790      0 ID4  
#>  5  9120      1 ID5  
#>  6  9660      0 ID6  
#>  7  9820      0 ID7  
#>  8 11310      0 ID8  
#>  9 11690      0 ID9  
#> 10 11850      0 ID10 
#> # ... with 28 more rows
…
# Beta-Binomial confidence bounds:
conf_bb <- confint_betabinom(
  x = rr_weibull, 
  b_lives = c(0.01, 0.1, 0.5), 
  bounds = "two_sided", 
  conf_level = 0.95, 
  direction = "y"
)
conf_bb
#> # A tibble: 102 x 6
#>        x  rank   prob lower_bound upper_bound cdf_estimation_method
#>  * <dbl> <dbl>  <dbl>       <dbl>       <dbl> <chr>                
#>  1 6700.  1.00 0.0183    0.000674      0.0927 johnson              
#>  2 6910   1.06 0.0199    0.000859      0.0958 johnson              
#>  3 7120.  1.13 0.0216    0.00108       0.0990 johnson              
#>  4 7330.  1.20 0.0234    0.00134       0.102  johnson              
#>  5 7540   1.27 0.0252    0.00165       0.106  johnson              
#>  6 7750   1.34 0.0272    0.00201       0.109  johnson              
#>  7 7960.  1.42 0.0293    0.00242       0.113  johnson              
#>  8 8170   1.51 0.0314    0.00289       0.117  johnson              
#>  9 8380   1.59 0.0336    0.00341       0.121  johnson              
#> 10 8590   1.68 0.0360    0.00401       0.124  johnson              
#> # ... with 92 more rows

# Fisher's normal approximation confidence intervals:
conf_fisher <- confint_fisher(x = ml_weibull)
conf_fisher
#> # A tibble: 102 x 6
#>        x   prob std_err lower_bound upper_bound cdf_estimation_method
#>  * <dbl>  <dbl>   <dbl>       <dbl>       <dbl> <chr>                
#>  1 6700. 0.0112   0.916     0.00186      0.0655 NA                   
#>  2 6910  0.0123   0.895     0.00214      0.0691 NA                   
#>  3 7120. 0.0135   0.875     0.00245      0.0729 NA                   
#>  4 7330. 0.0148   0.855     0.00279      0.0767 NA                   
#>  5 7540  0.0162   0.835     0.00317      0.0805 NA                   
#>  6 7750  0.0177   0.817     0.00359      0.0845 NA                   
#>  7 7960. 0.0192   0.799     0.00404      0.0886 NA                   
#>  8 8170  0.0208   0.781     0.00454      0.0927 NA                   
#>  9 8380  0.0225   0.764     0.00509      0.0969 NA                   
#> 10 8590  0.0244   0.747     0.00568      0.101  NA                   
#> # ... with 92 more rows
…
The computation and visualization of confidence for the lifetime
characteristic is pretty similar to the presented procedure with regard
to the probabilities. The only difference is that one has to change the
value of the argument direction to "x".

# Computation of confidence intervals for quantiles: 
## Beta-Binomial confidence intervals: 
conf_bb_x <- confint_betabinom(
  x = rr_weibull, 
  bounds = "upper", 
  conf_level = 0.95, 
  direction = "x"
)
conf_bb_x
#> # A tibble: 102 x 5
#>        x  rank   prob upper_bound cdf_estimation_method
#>  * <dbl> <dbl>  <dbl>       <dbl> <chr>                
#>  1 6700.  1.00 0.0183      11357. johnson              
#>  2 6910   1.06 0.0199      11521. johnson              
#>  3 7120.  1.13 0.0216      11687. johnson              
#>  4 7330.  1.20 0.0234      11855. johnson              
#>  5 7540   1.27 0.0252      12024. johnson              
#>  6 7750   1.34 0.0272      12195. johnson              
#>  7 7960.  1.42 0.0293      12367. johnson              
#>  8 8170   1.51 0.0314      12541. johnson              
#>  9 8380   1.59 0.0336      12715. johnson              
#> 10 8590   1.68 0.0360      12891. johnson              
#> # ... with 92 more rows

## Fisher's normal approximation confidence intervals:
conf_fisher_x <- confint_fisher(x = ml_weibull, bounds = "lower", direction = "x")
conf_fisher_x
#> # A tibble: 102 x 5
#>        x   prob std_err lower_bound cdf_estimation_method
#>  * <dbl>  <dbl>   <dbl>       <dbl> <chr>                
#>  1 6700. 0.0112   1943.       4159. NA                   
#>  2 6910  0.0123   1957.       4337. NA                   
#>  3 7120. 0.0135   1970.       4517. NA                   
#>  4 7330. 0.0148   1982.       4698. NA                   
#>  5 7540  0.0162   1993.       4881. NA                   
#>  6 7750  0.0177   2003.       5067. NA                   
#>  7 7960. 0.0192   2011.       5253. NA                   
#>  8 8170  0.0208   2019.       5441. NA                   
#>  9 8380  0.0225   2025.       5631. NA                   
#> 10 8590  0.0244   2031.       5822. NA                   
#> # ... with 92 more rows
…
