Life Data Analysis Part II - Estimation Methods for Parametric Lifetime Models • weibulltools
…
Data

To apply the introduced parameter estimation methods the shock and alloy datasets are used.

Shock Absorber

In this dataset kilometer-dependent problems that have occurred on shock absorbers are reported. In addition to failed items the dataset also contains non-defectives (censored) observations. The data can be found in Statistical Methods for Reliability Data 4.

For consistent handling of the data, weibulltools introduces the function reliability_data() that converts the original dataset into a wt_reliability_data object. This formatted object allows to easily apply the presented methods.

shock_tbl <- reliability_data(data = shock, x = distance, status = status)
shock_tbl
#> Reliability Data:
#> # A tibble: 38 x 3
#>        x status id   
#>    <int>  <dbl> <chr>
#>  1  6700      1 ID1  
#>  2  6950      0 ID2  
#>  3  7820      0 ID3  
#>  4  8790      0 ID4  
#>  5  9120      1 ID5  
#>  6  9660      0 ID6  
#>  7  9820      0 ID7  
#>  8 11310      0 ID8  
#>  9 11690      0 ID9  
#> 10 11850      0 ID10 
#> # ... with 28 more rows

Alloy T7989

The dataset alloy in which the cycles until a fatigue failure of a special alloy occurs are inspected. The data is also taken from Meeker and Escobar 5.

Again, the data have to be formatted as a wt_reliability_data object:

# Data: 
alloy_tbl <- reliability_data(data = alloy, x = cycles, status = status)
alloy_tbl
#> Reliability Data:
#> # A tibble: 72 x 3
#>        x status id   
#>    <dbl>  <dbl> <chr>
#>  1   300      0 ID1  
#>  2   300      0 ID2  
#>  3   300      0 ID3  
#>  4   300      0 ID4  
#>  5   300      0 ID5  
#>  6   291      1 ID6  
#>  7   274      1 ID7  
#>  8   271      1 ID8  
#>  9   269      1 ID9  
#> 10   257      1 ID10 
#> # ... with 62 more rows
…
