Life Data Analysis Part I - Estimation of Failure Probabilities • weibulltools
…
Data: shock

To apply the introduced methods of non-parametric failure probability estimation and probability plotting the shock data taken from SPREDA package is used. In this dataset kilometer-dependent problems that have occurred on shock absorbers are reported. In addition to failed items the dataset also contains non-defectives, so called censored observations.

The data can be found in Statistical Methods for Reliability Data 3.

library(SPREDA) # for dataset shock
data(shock)
# generate random ids for units: 
shock$id <- sample(c(letters, LETTERS), size = nrow(shock), replace = FALSE)

# using tibble for better print: 
as_tibble(shock)
#> # A tibble: 38 x 4
#>    Distance Mode     Censor id   
#>       <int> <fct>     <dbl> <chr>
#>  1     6700 Mode1         1 j    
#>  2     6950 Censored      0 N    
#>  3     7820 Censored      0 D    
#>  4     8790 Censored      0 X    
#>  5     9120 Mode2         1 y    
#>  6     9660 Censored      0 p    
#>  7     9820 Censored      0 f    
#>  8    11310 Censored      0 o    
#>  9    11690 Censored      0 l    
#> 10    11850 Censored      0 L    
#> # ... with 28 more rows
…
